<?xml version="1.0" encoding="UTF-8"?>
<svg xmlns="http://www.w3.org/2000/svg" xmlns:xlink="http://www.w3.org/1999/xlink" width="90pt" height="90pt" viewBox="0 0 90 90" version="1.1">
<g id="surface195694">
<path style=" stroke:none;fill-rule:nonzero;fill:rgb(100%,100%,100%);fill-opacity:1;" d="M 24 9 C 15.75 9 9 15.75 9 24 L 9 63 C 9 63.101562 9.007812 63.199219 9.015625 63.296875 C 9.179688 71.410156 15.851562 78 24 78 L 78 78 C 79.65625 78 81 76.65625 81 75 L 81 21 C 81 19.34375 79.65625 18 78 18 L 27 18 L 27 12 C 27 10.34375 25.65625 9 24 9 Z M 27 24 L 75 24 L 75 72 L 24 72 C 18.996094 72 15 68.003906 15 63 C 15 57.996094 18.996094 54 24 54 C 25.65625 54 27 52.65625 27 51 Z M 54 30 L 59.378906 35.378906 L 51 43.757812 L 44.121094 36.878906 C 42.949219 35.707031 41.050781 35.707031 39.878906 36.878906 L 33.878906 42.878906 C 33.09375 43.632812 32.78125 44.75 33.054688 45.800781 C 33.328125 46.851562 34.148438 47.671875 35.199219 47.945312 C 36.25 48.21875 37.367188 47.90625 38.121094 47.121094 L 42 43.242188 L 48.878906 50.121094 C 50.050781 51.292969 51.949219 51.292969 53.121094 50.121094 L 63.621094 39.621094 L 69 45 L 69 30 Z M 36 57 C 34.917969 56.984375 33.910156 57.554688 33.367188 58.488281 C 32.820312 59.421875 32.820312 60.578125 33.367188 61.511719 C 33.910156 62.445312 34.917969 63.015625 36 63 L 66 63 C 67.082031 63.015625 68.089844 62.445312 68.632812 61.511719 C 69.179688 60.578125 69.179688 59.421875 68.632812 58.488281 C 68.089844 57.554688 67.082031 56.984375 66 57 Z M 36 57 "/>
</g>
</svg>
